{
    "name": "Common",
    "alias": "common",
    "description": "",
    "keywords": [],
    "active": 1,
    "order": 0,
    "providers": [
        "Modules\\Common\\Providers\\CommonServiceProvider"
    ],
    "aliases":{},
    "files": [
        "start.php"
    ]
}